E_INF;E_SUP;C_INF;C_SUP;P_INF;P_SUP;A_INF;A_SUP;CODE_REGROUP_NOM;TXT_NOM;
8;10;0;10;0;2;0;10;1;DUP12;
5;5;0;10;0;2;0;10;12;DUP12;
5;5;0;10;3;4;0;10;12;DUP12;
6;7;0;10;0;2;0;10;12;DUP12;
6;7;0;10;3;4;0;10;13;DUP13;
8;10;0;10;3;4;0;10;14;DUP14;
0;2;0;10;0;2;0;10;2;DUP2;
3;4;0;10;0;2;0;10;21;DUP21;
0;2;0;10;3;5;0;10;23;DUP23;
0;2;0;10;5;5;0;10;23;DUP23;
3;4;0;10;5;5;0;10;23;DUP23;
3;4;0;10;3;4;0;10;24;DUP24;
0;2;0;10;8;10;0;10;3;DUP3;
3;4;0;10;6;7;0;10;31;DUP31;
0;2;0;10;6;7;0;10;32;DUP32;
3;4;0;10;8;10;0;10;34;DUP34;
8;10;0;10;8;10;0;10;4;DUP4;
6;7;0;10;5;5;0;10;41;DUP41;
8;10;0;10;5;5;0;10;41;DUP41;
8;10;0;10;6;7;0;10;41;DUP41;
6;7;0;10;6;7;0;10;42;DUP42;
5;5;0;10;6;7;0;10;43;DUP43;
5;5;0;10;8;10;0;10;43;DUP43;
6;7;0;10;8;10;0;10;43;DUP43;
5;5;0;10;5;5;0;10;55;DUP55;
